Take-home Exercise 02 – ISSS608-VAA
…
# ── 2. look those IDs up in the node table ──
collaborators <- graph %>% 
  activate(nodes) %>% 
  as_tibble() %>%                       # convert to a plain tibble for clarity
  filter(id %in% collab_ids) %>% 
  select(name, id)
print(collaborators)

# A tibble: 48 × 2
   name              id
   <chr>          <int>
 1 Zane Cruz      16958
 2 Iris Moon      16959
 3 Violet Engines 16960
 4 Sophie Bennett 16983
 5 Michael Harris 16984
 6 Kara Lee       16985
 7 Ethan Clarke   16986
 8 Tidal Reverie  16987
 9 Olivia Carter  16993
10 Lucas Bennett  16994
# ℹ 38 more rows
…
# ── 2. look those IDs up in the node table ──
collaborators <- graph %>% 
  activate(nodes) %>% 
  as_tibble() %>%                       # convert to a plain tibble for clarity
  filter(id %in% collab_ids) %>% 
  select(name, id)

print(collaborators)

# A tibble: 48 × 2
   name              id
   <chr>          <int>
 1 Zane Cruz      16958
 2 Iris Moon      16959
 3 Violet Engines 16960
 4 Sophie Bennett 16983
 5 Michael Harris 16984
 6 Kara Lee       16985
 7 Ethan Clarke   16986
 8 Tidal Reverie  16987
 9 Olivia Carter  16993
10 Lucas Bennett  16994
# ℹ 38 more rows
…
